…
colnames(suicide)[colnames(suicide) == "gdp_for_year ($)"] <- "gdp"
colnames(suicide)[colnames(suicide) == "gdp_per_capita ($)"] <- "gdp_per_capita"
colnames(suicide)[colnames(suicide) == "suicides/100k pop"] <-"suicides_per_100k"

suicide <- suicide %>% filter(year < 2016) %>% select(-c('HDI for year'))
suicide

## # A tibble: 27,660 x 11
##    country  year sex   age   suicides_no population suicides_per_10
##    <chr>   <dbl> <chr> <chr>       <dbl>      <dbl>            <dbl>
##  1 Albania  1987 male  15-2          21     312900             6.71
##  2 Albania  1987 male  35-5          16     308000             5.19
##  3 Albania  1987 fema 15-2          14     289700             4.83
##  4 Albania  1987 male  75+            1      21800             4.59
##  5 Albania  1987 male  25-3           9     274300             3.28
##  6 Albania  1987 fema 75+            1      35600             2.81
##  7 Albania  1987 fema 35-5           6     278800             2.15
##  8 Albania  1987 fema 25-3           4     257200             1.56
##  9 Albania  1987 male  55-7           1     137500             0.73
## 10 Albania  1987 fema 5-14           0     311000             0   
## #  with 27,650 more rows, and 4 more variables: `country-year` <chr>,
## #   gdp <dbl>, gdp_per_capita <dbl>, generation <chr>
…
